%YAML 1.1
%TAG !u! tag:unity3d.com,2011:
--- !u!114 &11400000
MonoBehaviour:
  m_ObjectHideFlags: 0
  m_PrefabParentObject: {fileID: 0}
  m_PrefabInternal: {fileID: 0}
  m_GameObject: {fileID: 0}
  m_Enabled: 1
  m_EditorHideFlags: 0
  m_Script: {fileID: 11500000, guid: 9155ecce3b10da04bb71ab6127c9239a, type: 3}
  m_Name: Abilities
  m_EditorClassIdentifier: 
  Abilities:
    keys:
    - BasicAttack
    - SPinnenSpugTouwSnare
    - BrindingShot
    - VeryBasicAttack
    values:
    - "<BTNode d1p1:type=\"BehaviourTree\" xmlns:d1p1=\"http://www.w3.org/2001/XMLSchema-instance\">\r\n
      \ <RootNode d1p1:type=\"BTSequence\">\r\n    <children>\r\n      <BTNode d1p1:type=\"BTWaitIterations\">\r\n
      \       <itterationsToWaitFor>5</itterationsToWaitFor>\r\n      </BTNode>\r\n
      \     <BTNode d1p1:type=\"BTDealDamage\">\r\n        <Damage>0.8</Damage>\r\n
      \       <Type>Fire</Type>\r\n        <TargetName>Target</TargetName>\r\n      </BTNode>\r\n
      \   </children>\r\n  </RootNode>\r\n</BTNode>"
    - "<BTNode d1p1:type=\"BehaviourTree\" xmlns:d1p1=\"http://www.w3.org/2001/XMLSchema-instance\">\r\n
      \ <RootNode d1p1:type=\"BTSelector\">\r\n    <children>\r\n      <BTNode d1p1:type=\"BTLog\">\r\n
      \       <Message>Mnjongen</Message>\r\n      </BTNode>\r\n    </children>\r\n
      \ </RootNode>\r\n</BTNode>"
    - "<BTNode d1p1:type=\"BehaviourTree\" xmlns:d1p1=\"http://www.w3.org/2001/XMLSchema-instance\">\r\n
      \ <RootNode d1p1:type=\"BTSelector\">\r\n    <children />\r\n  </RootNode>\r\n</BTNode>"
    - "<BTNode d1p1:type=\"BehaviourTree\" xmlns:d1p1=\"http://www.w3.org/2001/XMLSchema-instance\">\r\n
      \ <RootNode d1p1:type=\"BTSequence\">\r\n    <children>\r\n      <BTNode d1p1:type=\"BTDealDamage\">\r\n
      \       <Damage>5000</Damage>\r\n        <Type>Fire</Type>\r\n        <TargetName>Target</TargetName>\r\n
      \     </BTNode>\r\n    </children>\r\n  </RootNode>\r\n</BTNode>"
