%YAML 1.1
%TAG !u! tag:unity3d.com,2011:
--- !u!1045 &1
EditorBuildSettings:
  m_ObjectHideFlags: 0
  serializedVersion: 2
  m_Scenes:
  - enabled: 1
    path: Assets/Game Assets/Scenes/MainMenu.unity
    guid: ba463bcbaf187b14dbefc0604109aa3b
  - enabled: 1
    path: Assets/Game Assets/Scenes/Levels/The Forest Encampment.unity
    guid: 7b2e6dc33ec54f84cb5898599a438d56
  - enabled: 1
    path: Assets/Game Assets/Scenes/Levels/The Forest.unity
    guid: f7429c81b3e54eb428d7588b8eb29619
  - enabled: 1
    path: Assets/Game Assets/Scenes/Levels/SpiderDen/The Spider Den.unity
    guid: f8f578bc6ae9bce4495b2d0eb6f7d263
  - enabled: 1
    path: Assets/Game Assets/Scenes/Levels/SpiderDen/The Spider Queen's Lair.unity
    guid: b62cbbf7e3d705148b309fa66b5fed80
